{
  "search": [
    {
      "action": "literal",
      "value": -1
    },
    {
      "action": "literal",
      "value": 0
    },
    {
      "action": "literal",
      "value": 0
    },
    {
      "action": "simple",
      "type": "make_vec"
    }
  ],
  "replace": [
    {
      "action": "simple",
      "type": "vec_refl_mx"
    }
  ]
}